2 Coding in R - Basics – Environmental Data Visualization - EA 078 Fall 2024
…
library(ggplot2)

The current libraries loaded can be founded in the file manager panel under the Packages tab.

2.2.2 Step 2 - Acquire and/or Load Data

In this case we’re going go to do SUPER EZ mode. Acquiring and loading data has lots of detail oriented stuff, that we’re going to skip today to get to the fun stuff. We’ll jump into acquiring data and loading data on Friday.

The mpg dataset is an example dataset included in the tidyverse package. No loading required.

We can look at the first ten rows of the dataset by typing mpg and running that line of code.

mpg

# A tibble: 234 × 11
   manufacturer model      displ  year   cyl trans drv     cty   hwy fl    class
   <chr>        <chr>      <dbl> <int> <int> <chr> <chr> <int> <int> <chr> <chr>
 1 audi         a4           1.8  1999     4 auto… f        18    29 p     comp…
 2 audi         a4           1.8  1999     4 manu… f        21    29 p     comp…
 3 audi         a4           2    2008     4 manu… f        20    31 p     comp…
 4 audi         a4           2    2008     4 auto… f        21    30 p     comp…
 5 audi         a4           2.8  1999     6 auto… f        16    26 p     comp…
 6 audi         a4           2.8  1999     6 manu… f        18    26 p     comp…
 7 audi         a4           3.1  2008     6 auto… f        18    27 p     comp…
 8 audi         a4 quattro   1.8  1999     4 manu… 4        18    26 p     comp…
 9 audi         a4 quattro   1.8  1999     4 auto… 4        16    25 p     comp…
10 audi         a4 quattro   2    2008     4 manu… 4        20    28 p     comp…
# ℹ 224 more rows
…
